%YAML 1.1
%TAG !u! tag:unity3d.com,2011:
--- !u!114 &11400000
MonoBehaviour:
  m_ObjectHideFlags: 0
  m_CorrespondingSourceObject: {fileID: 0}
  m_PrefabInstance: {fileID: 0}
  m_PrefabAsset: {fileID: 0}
  m_GameObject: {fileID: 0}
  m_Enabled: 1
  m_EditorHideFlags: 0
  m_Script: {fileID: 11500000, guid: ac798a9139f2b464ea9d6e9a88c4091e, type: 3}
  m_Name: GDS210GPG210
  m_EditorClassIdentifier: 
  priority: 1
  facilitators: 000000001000000016000000190000000e0000000700000013000000
